<svg width="188" height="182" viewBox="0 0 188 182" fill="none" xmlns="http://www.w3.org/2000/svg">
<path d="M127.502 22.6582C137.321 29.306 145.305 38.2405 150.692 49.0011C155.735 59.1119 157.983 70.212 157.302 81.4224C157.435 75.7796 156.799 70.2115 155.56 64.6931C154.456 60.0556 152.912 55.7119 150.806 51.4805L150.317 50.7503C145.824 41.595 139.8 33.551 131.55 27.6162C131.468 27.4945 131.346 27.312 131.117 27.3773C131.321 27.6815 131.547 27.8829 131.813 28.1451C138.403 34.0457 143.847 40.2734 148.028 47.8754C151.802 54.8689 154.345 62.3344 155.387 70.2746C156.785 81.3271 155.508 92.0553 150.745 102.738C148.865 106.995 146.68 110.661 143.978 114.234C142.479 116.207 140.899 118.058 139.36 119.972C139.297 120.014 139.378 120.135 139.378 120.135C139.818 119.841 140.298 119.608 140.615 119.131C138.448 121.464 135.973 123.473 133.417 125.361C147.808 113.433 155.503 94.0868 153.135 76.0144C152.884 76.1826 153.15 76.4448 153.002 76.6318C152.866 70.9934 152 65.4907 150.263 60.042C147.905 52.7175 144.417 46.1494 139.717 40.2178C132.972 31.7756 124.647 25.1858 114.325 20.6387C111.868 19.5507 109.533 18.6464 106.966 18.0728C107.007 18.1337 107.088 18.2554 107.192 18.2742C119.279 22.8744 129.145 29.0491 137.248 38.4327C142.077 44.0143 145.739 50.0246 148.37 57.078C149.977 61.3792 150.984 65.4651 151.593 69.9058C153.082 80.2801 151.853 90.5358 147.285 100.56C146.304 102.626 145.305 104.531 144.139 106.457C143.143 108.094 142.065 109.609 140.925 111.167C138.879 113.682 136.816 116.034 134.36 118.208C133.038 119.358 131.737 120.405 130.333 121.433C127.422 123.471 124.473 125.181 121.155 126.61C113.35 129.898 105.364 131.014 97.2454 129.486C96.4799 129.294 95.7551 129.162 94.9896 128.97C93.7063 128.683 92.4859 128.355 91.3931 127.675C91.1673 127.474 90.9195 127.376 90.6309 127.216C90.4866 127.137 90.4679 126.973 90.3236 126.893C89.665 126.453 89.0692 125.971 88.5576 125.343C94.5629 128.197 101.405 128.904 108.163 127.993C116.814 126.784 124.689 122.92 131.241 116.946C131.976 116.278 132.544 115.633 133.28 114.964C133.616 114.651 133.87 114.216 134.288 114.025C136.15 112.865 137.808 111.403 139.304 109.696C140.187 108.841 140.926 107.905 141.664 106.97C142.55 105.848 143.229 104.688 144.011 103.547C144.945 101.953 145.816 100.4 146.626 98.6221C149.34 92.4855 150.7 86.6379 151.094 80.0269C151.531 71.7125 150.357 64.3892 147.358 56.7882C145.949 53.3245 144.472 50.1696 142.224 47.3555C142.102 47.173 142.105 46.9063 141.795 46.85C142.945 49.5181 144.368 51.9144 145.558 54.6434C147.072 58.1258 148.13 61.4722 148.915 65.0902C149.738 69.0352 150.208 72.8634 150.155 77.1305C150.037 83.2037 149.183 88.4483 146.828 94.1688C146.529 94.8094 146.252 95.3472 145.994 96.0487C145.482 97.185 144.847 98.1388 144.212 99.0931C143.873 99.6729 143.493 100.192 142.99 100.528C144.65 97.3013 145.895 93.9989 146.771 90.415C147.587 86.6065 148.299 82.7805 147.662 78.9755C147.385 79.5132 147.316 80.0885 147.35 80.6827C147.554 69.4391 144.225 58.3566 138.385 48.9561C136.168 45.2393 133.513 41.8167 130.081 39.0017C129.896 38.8612 129.733 38.6178 129.463 38.6223L129.545 38.7439C122.714 32.211 114.699 27.4413 105.313 24.2942C98.6761 22.1273 92.5659 21.018 85.5105 20.8062C79.8452 20.6329 74.7135 20.9847 69.4049 22.159C68.1777 22.3638 66.9906 22.63 65.8229 23.0594L65.8008 23.1623C70.6258 22.4882 75.2024 21.7149 80.2498 21.5088C82.3681 21.4123 84.2992 21.4421 86.4362 21.5094C95.3782 21.9562 103.264 23.8161 111.316 27.4164C118.272 30.6041 124.016 34.4263 129.429 39.7932C134.924 45.2819 139.062 51.3261 142.048 58.2293C146.107 68.9106 146.826 81.1227 143.054 92.1997C143.519 88.2739 143.88 84.3307 143.557 80.3154C143.538 80.1517 143.519 79.988 143.397 79.8054C142.973 80.5301 143.022 81.5547 142.949 82.3966C142.425 86.0978 141.761 89.4513 140.885 93.0352C139.991 96.4554 139.079 99.7105 137.689 102.934C135.765 105.632 133.617 108.128 131.058 110.284C131.563 109.681 132.047 109.181 132.513 108.516C132.978 107.852 133.421 107.291 133.886 106.627C138.116 100.444 140.776 93.55 141.783 86.0881C142.699 79.3045 142.199 72.8511 140.452 66.4401C138.071 57.721 133.431 50.2497 127.516 43.4561C123.261 38.4596 118.433 34.3763 112.746 31.0448C112.313 30.8059 111.88 30.5669 111.407 30.2671C110.685 29.8689 109.901 29.5128 109.116 29.1558C99.6476 24.3896 89.6865 22.4208 78.6383 22.7676C78.0357 22.8185 77.4332 22.8695 76.7899 22.8596C60.2107 23.9126 45.1207 30.3151 32.351 40.454C27.7375 44.1604 23.5969 48.1671 19.8243 52.7217C16.8302 56.4013 14.1064 60.0772 11.708 64.2392C10.0105 67.1387 8.42108 69.7905 7.13432 73.0318C6.94259 73.4246 6.77291 73.7145 6.58118 74.1073C4.35836 79.2105 2.90725 83.972 1.88616 89.2398C1.06348 93.5816 0.429984 97.7967 0.479207 102.082C0.894737 100.394 0.937131 98.6898 1.20837 96.9218C1.45757 95.2566 1.72575 93.7539 2.07849 92.1076C2.87242 88.402 3.70349 85.0252 5.03717 81.3107C5.37987 80.4642 5.59698 79.7019 5.87689 78.8975C7.14443 75.4917 8.42706 72.5176 10.0652 69.3935C10.5114 68.5659 10.9356 67.8411 11.3199 67.055C16.3959 57.9259 22.6603 50.0282 30.5947 43.1284C39.6186 35.4109 49.7793 29.6643 61.1757 26.4403C65.9882 25.0684 70.7316 24.2726 75.7598 23.902C82.0343 23.491 87.8626 23.9077 93.9287 25.2227C98.5452 26.2746 102.699 27.7243 106.951 29.7255C111.347 31.8064 115.344 34.243 119.086 37.1144C110.151 31.1089 99.9191 27.6472 88.6352 26.8287C78.6171 26.1331 69.319 27.5993 59.8092 31.0582C52.9899 33.5096 46.9077 36.7883 41.2078 41.0471C33.162 46.9638 26.0124 54.2205 21.0873 62.896C23.2585 60.2963 25.0362 57.5182 27.311 54.9373C28.6584 53.4181 29.9438 51.9404 31.3947 50.44C37.7244 43.9978 44.3882 39.0054 52.3263 35.1008C59.8463 31.387 67.5164 28.9838 75.8539 27.9846C82.2574 27.2229 88.4632 27.3868 94.8025 28.4307C107.355 30.6027 118.457 36.0395 127.143 45.2084C128.558 46.641 129.828 47.9948 130.991 49.5956C132.317 51.4406 133.414 53.3501 134.489 55.3632C135.543 57.4793 136.492 59.5758 137.19 61.8413C137.785 64.088 138.443 66.2919 138.35 68.735C138.261 69.1466 138.255 69.6799 137.837 69.8713C137.608 69.9366 137.404 69.6324 137.219 69.4919C135.953 67.8723 135.103 66.0604 133.962 64.3567C132.678 60.809 130.873 57.4339 128.753 54.2691C124.085 47.4339 117.821 42.02 110.313 38.1437C109.489 37.7266 108.601 37.3517 107.775 36.9339C97.5564 32.4056 86.7161 31.0255 75.7981 32.519C77.5055 32.0807 79.2324 31.8056 80.9585 31.531L80.9806 31.4281C80.6479 31.4746 80.3593 31.3153 80.0895 31.3198C75.9586 31.2647 72.3392 31.8377 68.4474 32.6812C66.6364 33.1007 64.9062 33.6425 63.0511 34.2678C62.5301 34.4404 62.0498 34.674 61.5287 34.8466C59.8587 35.6124 58.3542 36.3555 56.7657 37.243C54.6112 38.5095 52.354 39.7567 50.4033 41.3274C45.6369 43.9905 41.4436 47.2393 37.3886 51.1005C32.894 55.256 29.2055 59.6662 26.0283 64.7023C22.597 70.174 19.5345 75.9264 17.9416 82.106C18.1928 81.9378 18.2589 81.6291 18.3658 81.3813C18.9443 79.9363 19.4388 78.6357 20.1204 77.2087C20.5038 76.4231 20.7617 75.7216 21.1451 74.936C26.3069 63.8977 33.5245 54.5694 42.9367 47.2959C37.8762 51.8304 33.7202 57.1705 30.0144 62.9131C29.9296 63.0581 29.8855 63.2639 29.8007 63.4088C27.3616 67.5099 25.2777 71.4624 23.7049 76.0421C23.5759 76.3929 23.4283 76.5799 23.2994 76.9306C21.5569 81.8002 20.4418 86.2486 19.5903 91.2266C19.4988 91.9048 19.4293 92.4801 19.2971 93.0975C18.8358 96.7566 18.5665 100.022 18.5194 103.756C18.4012 114.854 20.3772 124.462 24.5908 134.423C28.5449 143.587 33.6619 151.092 40.7556 158.154C41.4737 158.819 42.0475 159.404 42.7661 160.07C46.7679 163.736 50.7585 166.706 55.2919 169.401C60.5877 172.554 66.2667 174.922 72.1598 176.794C71.9968 176.55 71.6862 176.494 71.3976 176.335C70.6761 175.937 69.8699 175.683 69.1479 175.284C68.9629 175.144 68.7558 175.106 68.5487 175.069C68.2194 174.849 67.868 174.731 67.6015 174.469C69.7725 175.13 71.7972 175.979 74.0089 176.701C77.4832 177.813 80.6896 178.662 84.1892 179.405C91.3534 180.866 98.0508 181.494 105.528 181.247C112.132 181.056 118.1 180.321 124.387 178.843C131.189 177.19 137.879 175.09 144.047 171.665C141.105 172.842 138.267 174.038 135.243 175.093C130.073 176.881 125.031 178.317 119.725 179.226C110.217 180.921 100.851 181.199 91.2121 179.984C80.2276 178.524 70.2211 175.264 60.6956 170.007C56.0771 167.458 51.7547 164.535 47.6426 161.382C48.9633 161.996 50.0299 163.046 51.3285 163.763C51.9056 164.081 52.3979 164.545 52.953 164.966C60.4478 169.909 68.1222 173.761 76.9743 176.384C77.7398 176.577 78.4018 176.751 79.1046 176.985C86.8206 179.134 94.0328 180.123 102.316 180.13C107.009 180.073 111.287 179.94 115.638 178.967C109.593 179.312 103.67 179.841 97.4897 179.308L96.6801 179.321C79.9426 178.101 64.8148 172.627 51.878 162.955C47.3331 159.564 43.33 155.897 39.6048 151.692C38.0492 149.912 36.5977 148.152 35.2084 146.349C27.9706 134.183 24.4346 119.801 26.0474 105.499C26.4164 110.805 27.2445 115.98 28.8827 121.143L28.9863 121.162C29.4356 125.093 30.2609 128.771 31.3348 132.548C31.9706 134.856 32.9418 136.849 34.0579 138.923C36.6561 143.618 39.4059 147.86 43.3636 151.733C43.5266 151.976 43.7931 152.239 44.0817 152.398C43.4551 151.055 42.4513 149.963 41.6992 148.704C41.2322 147.871 40.7025 147.08 40.2351 146.246C38.4264 143.138 36.8654 140.128 35.4335 136.767C32.7919 130.514 31.1056 124.327 30.253 117.757C32.8854 131.332 40.2081 143.354 50.6555 152.843C50.8813 153.044 51.0443 153.288 51.27 153.489C53.1176 155.161 54.9679 156.566 56.9859 157.948C59.5989 159.813 62.253 161.737 65.331 162.938C65.168 162.695 64.9201 162.596 64.6944 162.395C58.1028 158.258 52.2881 153.513 47.0252 147.693C37.2598 136.778 31.5918 123.56 30.9696 108.639C30.4682 95.6627 34.0715 83.1121 41.6347 72.6701C41.4397 73.3295 41.1818 74.031 41.0903 74.7092C38.0324 80.1953 35.0768 85.6998 33.6282 91.9591C33.4772 92.4127 33.389 92.8243 33.2381 93.2779C30.0422 106.437 31.6638 119.456 37.0753 131.611C38.9147 135.58 40.9866 139.218 43.5168 142.724C45.4358 145.318 47.5211 147.889 50.0895 149.959C49.8484 149.327 49.3561 148.864 48.9266 148.358C43.5456 142.088 39.2066 135.473 36.2746 127.563C33.7246 120.632 32.4625 113.72 32.5525 106.519C32.7332 111.951 33.4764 117.271 35.051 122.477C36.7261 127.966 39.0696 133.097 42.0821 137.867C44.8908 142.333 48.1209 146.342 52.1006 150.111C56.2246 153.961 60.4381 157.399 65.4105 159.799L65.4326 159.696L64.3224 158.853C61.358 156.871 58.6219 154.824 55.8497 152.45C54.9874 151.706 54.2693 151.041 53.4064 150.296C42.8585 140.522 36.2456 128.201 34.0747 114.228C33.082 107.311 33.1472 100.48 34.5838 93.5236C35.6423 88.5832 37.1336 83.8818 39.8646 79.6734C39.8579 80.2066 39.6001 80.9081 40.1144 81.2687C40.1959 81.3904 40.4879 81.2831 40.6762 81.1569C35.6563 90.7772 34.0877 101.613 35.1377 112.282C35.8634 118.936 37.3847 125.147 40.2141 131.273C43.2444 137.971 47.0564 143.528 52.1589 148.839C55.8687 152.613 59.6709 155.708 64.0159 158.53C69.1641 161.869 74.4069 164.266 80.4222 166.32C87.2658 168.524 93.875 169.564 100.868 169.817C102.78 169.683 104.77 169.938 106.644 169.476C105.069 169.297 103.489 169.385 101.955 169.266C105.235 169.273 108.48 168.687 111.767 168.16C117.8 167.118 123.345 165.344 129.188 162.929C137.869 159.319 145.11 154.646 152.098 148.644C153.169 147.663 154.115 146.765 155.227 145.844C165.636 136.935 173.591 126.671 179.335 113.921C184.12 103.135 186.599 92.5719 187.154 81.4455C187.116 77.8567 187.371 74.1608 186.73 70.623C186.765 74.4784 186.758 78.2735 186.541 82.2969C186.239 86.4661 185.756 90.2267 185 94.2598C183.696 100.599 181.943 106.268 179.333 112.424C175.101 122.133 169.684 130.345 162.76 137.803C170.011 129.069 175.596 119.07 179.072 108.367C179.01 108.409 178.884 108.493 178.862 108.596C170.586 127.89 158.3 144.051 140.854 154.676C129.525 160.853 117.4 164.212 103.926 164.331C95.2067 164.352 87.8727 163.181 79.8115 160.381C67.3068 155.972 57.0807 148.716 49.7974 138.52C44.8186 131.628 41.5759 123.662 40.5625 115.084C39.6766 107.92 40.2034 100.691 42.4496 93.7216C41.3283 98.704 41.3493 103.627 41.4085 108.876C41.4803 113.059 42.118 116.864 43.1699 120.744C44.4442 125.091 46.2209 129.103 48.8326 132.731C48.8733 132.792 48.9548 132.913 49.0396 132.768L48.9989 132.708C53.1648 139.879 58.797 145.981 65.6076 150.852C73.7356 156.605 82.907 160.248 92.9564 161.805C101.141 163.024 109.154 163.035 117.25 161.404C119.457 160.896 121.642 160.49 123.667 159.575C123.293 159.56 122.939 159.71 122.543 159.798C113.261 161.695 104.176 162.665 94.7266 161.325C91.0793 160.77 87.7253 160.107 84.1883 159.037C68.2634 154.275 55.3174 143.639 48.3358 129.273C47.5745 127.049 46.666 125.014 45.8639 122.729C45.222 120.956 44.7239 119.261 44.2483 117.464C42.9092 111.662 42.8603 105.611 43.8694 99.6463C43.6306 103.773 43.4961 107.919 43.9413 112.117C44.5615 117.255 45.7883 122.075 47.9917 126.859C49.3863 129.892 51.0133 132.594 53.1201 135.061C53.2016 135.182 53.4495 135.281 53.531 135.402C57.5285 141.1 62.4895 146.064 68.2308 150.153C72.6754 153.259 77.2752 155.644 82.6285 157.525C89.883 160.071 96.5521 161.336 104.399 161.37C115.922 161.324 126.576 159.302 136.257 153.789C135.946 153.732 135.695 153.9 135.444 154.069C131.689 155.526 128.185 156.814 124.518 157.859C133.101 155.461 141.164 151.472 148.372 146.205C151.933 143.644 155.394 140.797 158.218 137.407C155.765 139.314 153.62 141.544 151.127 143.39C148.382 145.405 145.74 147.438 142.792 149.148C139.404 151.152 136.082 152.848 132.368 154.366C123.709 157.873 115.568 159.71 106.224 159.885C102.278 159.97 98.7325 159.701 94.9189 159.169C93.3658 158.887 91.8934 158.727 90.3618 158.342C88.8936 157.915 87.5063 157.609 86.0372 157.182C84.1768 156.577 82.4594 156.052 80.5804 155.283C69.159 150.591 60.0975 143.171 54.0788 133.097C56.6684 136.828 59.93 139.933 63.336 143.117C70.1707 149.383 77.7374 153.484 86.6939 156.126C91.6584 157.561 96.2562 158.45 101.444 158.589C106.403 158.794 111.014 158.615 115.557 157.249C115.039 157.155 114.581 157.285 114.041 157.294C101.63 158.73 89.2142 157.171 78.2988 151.874C81.1697 153.038 84.1444 154.218 87.2952 154.577C87.2137 154.456 87.1102 154.437 86.9659 154.357C80.9099 152.242 75.5192 150.034 70.3492 146.796C69.5463 146.276 68.7026 145.695 67.8991 145.175C65.5119 143.511 63.3543 141.783 61.2835 139.643C57.8809 136.192 55.2913 132.461 53.1005 128.374C56.4768 133.96 60.8166 138.81 66.0809 142.867C66.821 143.429 67.6647 144.009 68.4053 144.572C75.1786 149.116 82.5707 152.276 90.7268 154.131C96.046 155.418 101.105 155.908 106.755 155.651C115.644 155.339 123.577 153.465 131.759 149.925C135.329 148.327 138.444 146.594 141.544 144.43C141.673 144.079 142.213 144.07 142.342 143.72C139.899 144.827 137.638 146.341 135.173 147.551C133.377 148.401 131.666 149.106 129.83 149.895C126.762 151.156 123.887 152.024 120.803 152.854C117.221 153.754 113.705 154.345 109.923 154.674C108.678 154.716 107.576 154.836 106.329 154.878C105.146 154.877 104.026 154.834 102.842 154.833C108.862 154.857 114.77 153.898 120.707 152.303C121.749 151.957 122.855 151.569 123.938 151.285C126.418 150.505 128.735 149.483 131.033 148.296C131.096 148.254 131.118 148.151 131.181 148.109C135.084 146.465 138.657 144.601 142.089 142.39C146.024 139.844 149.589 137.016 152.975 133.514C154.426 132.014 155.856 130.616 156.874 128.876L156.497 129.129C154.477 131.275 152.586 133.07 150.444 135.033C148.659 136.581 146.92 137.922 145.117 139.305C141.869 141.656 138.522 143.722 134.845 145.567C133.822 146.076 132.757 146.525 131.733 147.034C130.669 147.482 129.626 147.828 128.562 148.276C130.732 147.44 132.904 146.338 134.893 145.095C134.955 145.053 134.977 144.95 135.04 144.908C134.353 145.104 133.706 145.36 132.997 145.659C124.519 149.573 116.25 151.761 106.925 152.1C95.4811 152.535 84.9648 150.145 75.5056 144.578C75.032 144.278 74.5771 144.142 74.1035 143.842C72.0643 142.563 70.1732 141.097 68.3877 139.383C68.2247 139.14 68.021 138.835 67.7952 138.634C65.7439 136.658 63.9003 134.719 62.163 132.533C68.7918 140.258 77.6297 145.712 87.8507 148.477C88.8233 148.707 89.7959 148.937 90.8098 149.228C101.866 151.609 112.858 150.771 123.699 147.126C127.806 145.786 131.523 144.002 135.245 141.952C138.799 139.924 142.128 137.694 145.234 134.997C146.305 134.016 147.418 133.095 148.263 131.912C147.72 132.187 147.173 132.73 146.608 133.108C153.452 127.027 158.693 119.638 162.764 111.182C167.603 101.154 169.801 91.3951 169.982 80.2549C170.042 72.1928 169.031 65.1129 166.861 57.6622C164.729 50.5386 161.844 43.9208 157.705 37.8766C157.379 37.3898 157.179 36.8189 156.705 36.5191C162.35 46.579 166.887 57.2935 168.463 69.0198C169.639 77.8408 169.218 86.5857 167.258 95.4787C166.225 100.05 164.906 104.194 162.941 108.595C160.25 114.629 157.195 119.848 153.064 124.819C151.946 126.273 150.686 127.381 149.423 128.755C148.161 130.129 146.734 131.261 145.349 132.453C141.593 135.673 137.533 138.304 133.206 140.673C131.639 141.457 130.198 142.158 128.591 142.882C125.94 143.952 123.605 144.811 120.958 145.614C110.332 148.763 99.2859 148.843 88.8994 146.102C89.1064 146.14 89.3543 146.238 89.4391 146.093C89.4611 145.99 89.3169 145.911 89.2133 145.892C87.2715 145.165 85.5981 144.434 83.7598 143.726C85.8867 144.593 88.1218 145.213 90.3997 145.626C90.7731 145.64 91.1652 145.818 91.5827 145.627C91.4605 145.444 91.1906 145.449 91.0056 145.308C83.418 142.808 76.5436 139.743 70.9422 134.502C75.4617 138.263 80.4287 141.196 86.3404 143.232C90.6617 144.657 94.6562 145.597 99.1566 145.932C101.438 146.079 103.41 146.17 105.735 146.111C111.529 145.934 116.69 144.946 122.131 143.153C130.699 140.325 138.248 135.975 144.988 129.874C148.999 126.219 152.41 122.347 155.456 117.928C157.486 114.982 159.246 112.039 160.865 108.752C161.845 106.685 162.616 104.846 163.452 102.7C165.751 96.4879 167.09 90.7432 167.669 84.2727C168.056 79.9586 168.043 76.0003 167.764 71.78C167.392 66.7402 166.413 62.0186 165.082 57.1797C160.268 40.4812 150.003 26.375 136.056 16.1443C130.522 12.0923 124.791 8.96662 118.287 6.18234C113.743 4.28847 109.463 2.9229 104.743 1.85221C100.789 0.973952 96.9577 0.278468 92.9524 0.139282C95.249 0.716557 97.5722 0.924528 99.8909 1.39891C102.106 1.85449 104.156 2.33356 106.308 2.83119C107.529 3.15965 108.542 3.45051 109.764 3.77921C118.305 6.34608 125.961 10.0342 133.104 14.8593C115.247 3.5446 93.1503 -0.787571 71.6417 2.68513L68.9575 3.16061C65.5859 3.83201 62.3182 4.52089 59.0656 5.64147C65.435 4.28564 71.635 3.21842 78.2829 2.82181C81.1708 2.65056 83.7258 2.52712 86.6103 2.62251C87.5642 2.68879 88.3739 2.67542 89.2878 2.68031C93.8957 2.76853 98.0194 3.35613 102.431 4.10432C107.713 5.0632 112.326 6.38173 117.513 8.28601C118.36 8.60013 119.04 8.93751 119.888 9.2524C123.192 10.6546 126.122 12.0411 129.09 13.7565C129.852 14.2155 130.574 14.6138 131.296 15.0128C139.97 20.2228 147.275 27.0557 153.509 34.8699C153.468 34.809 153.449 34.6453 153.409 34.5844C159.936 43.789 164.413 54.2775 166.306 65.5283C167.134 70.7041 167.447 75.5188 167.192 80.979C166.87 86.748 166.078 91.9506 164.41 97.4752C162.198 105.039 158.916 111.821 154.372 118.214C150.589 123.568 146.087 128.258 140.931 132.24C133.657 137.816 125.302 141.912 116.33 143.865C116.06 143.87 115.768 143.977 115.499 143.982C98.3454 147.711 79.4952 142.792 67.9676 130.06C66.3373 127.625 65.0841 124.939 63.8712 122.313C64.1378 122.575 64.3008 122.819 64.6301 123.039C64.7998 122.749 64.6368 122.505 64.5145 122.323C63.6717 119.978 62.5341 118.007 61.8984 115.7C61.2847 113.29 61.1077 110.852 61.0974 108.39C61.6372 116.668 65.2787 124.279 70.8888 130.483C71.3591 131.05 71.641 131.742 72.0489 132.352C73.2311 134.117 75 135.4 76.8536 136.538C79.4072 138.179 82.0646 139.836 85.1714 140.401C96.7562 145.338 110.352 145.4 122.446 141.18C122.173 141.451 121.715 141.582 121.482 141.914C121.793 141.97 122.085 141.863 122.314 141.798C128.416 140.179 133.956 137.175 138.823 133.033C139.348 132.594 139.709 131.911 140.274 131.533C145.749 127.073 150.504 121.949 154.439 116.141C156.916 112.367 158.893 108.663 160.691 104.284C161.1 103.129 161.465 102.18 161.915 101.085C162.261 99.972 162.585 98.9618 162.932 97.8474C164.297 93.2301 165.098 88.992 165.532 84.206C166.074 77.4081 165.695 71.1372 164.489 64.7173C163.807 61.1186 162.812 57.7296 161.59 54.1398C159.044 46.9415 155.615 40.598 151.018 34.6857C150.059 33.3891 149.099 32.0918 147.848 30.9025C147.767 30.7808 147.663 30.762 147.56 30.7432C148.763 32.4049 149.927 34.0065 151.131 35.6682C154.557 40.5134 157.36 45.5133 159.675 51.2793C161.166 54.8646 162.328 58.2298 163.154 61.9086C164.711 68.4471 165.297 74.7542 164.918 81.7956C164.557 89.0007 163.294 95.4011 160.697 102.254C157.951 109.293 154.531 115.462 149.79 121.017C153.714 116.009 156.77 110.789 159.316 104.676C161.697 98.5861 163.534 92.7716 163.737 86.5534C163.505 86.8854 163.624 87.3345 163.391 87.6665C163.956 84.0262 164.166 80.5366 164.046 76.8256C163.971 72.9093 163.641 69.4273 162.982 65.7265C161.891 60.0218 160.275 54.7563 157.872 49.4019C155.105 43.2326 151.644 37.7931 147.411 32.6938C143.526 27.9792 139.175 23.9276 134.238 20.3587L133.372 19.8808C133.576 20.1851 133.801 20.3864 134.131 20.6065C124.34 13.3225 113.215 8.25548 100.872 5.85497C94.9278 4.72246 88.9993 4.02034 82.9947 4.42684C83.2833 4.58612 83.638 4.43672 83.9266 4.59601C89.4255 4.79255 94.7956 5.33985 100.325 6.39717C107.035 7.7221 113.072 9.67332 119.348 12.5237C127.769 16.405 134.664 21.1317 141.288 27.627C145.06 31.3592 148.168 35.1844 151.021 39.4453C153.322 43.0172 155.353 46.5936 157.067 50.6469C163.562 65.7797 164.456 82.1941 159.57 97.7202C163.482 83.7285 163.167 69.1301 157.838 55.3315C156.128 51.0116 154.433 47.122 152.135 43.2834C149.837 39.4448 147.37 35.8961 144.382 32.5201C142.763 30.7825 141.208 29.0036 139.294 27.6399C141.257 30.0281 143.471 32.2473 145.412 34.7383C147.312 37.1685 149.087 39.682 150.736 42.2804C153.826 47.4388 156.352 52.9765 158.127 58.7519C156.151 52.4054 153.3 46.3812 149.569 40.9455C146.757 36.7463 143.775 32.8369 139.873 29.4547C139.688 29.3142 139.588 29.0288 139.277 28.9724L139.725 29.6417C146.505 36.9137 151.87 44.5174 155.614 53.9107C158.512 61.2263 159.981 68.1756 160.298 75.9854C160.566 82.77 159.802 89.1007 158.017 95.6731C156.298 101.937 153.633 107.601 150.159 113.012C153.849 106.838 156.547 100.271 158.172 93.1885C159.12 88.7626 159.839 84.4025 159.501 79.9577C159.287 80.4534 159.343 80.9446 159.233 81.4591C159.901 66.2903 155.17 51.2104 146.187 39.1549C141.838 33.3398 136.796 28.2546 130.891 23.9216C129.678 23.0599 128.463 22.1974 127.165 21.4806C124.053 19.6856 121.147 17.9287 117.677 16.5506C117.574 16.5318 117.511 16.5738 117.448 16.6159C120.912 18.5281 124.272 20.421 127.503 22.6652L127.502 22.6582ZM155.086 57.8717C157.929 66.1936 159.085 75.1169 158.268 83.9509C158.171 83.3988 158.366 82.7394 158.165 82.1685C158.081 82.3134 157.996 82.4584 158.014 82.6221C158.783 74.2611 157.645 65.7684 155.087 57.8725L155.086 57.8717ZM81.6786 137.355C81.3493 137.135 81.0012 136.751 80.6719 136.531C85.3125 138.977 90.4392 140.656 95.7023 141.451C97.1672 142.145 98.8693 142.24 100.548 142.438C103.348 142.678 106.047 142.635 108.894 142.402C109.892 142.263 110.868 142.226 111.867 142.086C116.713 141.309 121.379 140.124 125.784 138.144C124.465 139.027 123.045 139.625 121.686 140.447C108.509 144.952 93.5727 144.111 81.6794 137.354L81.6786 137.355ZM66.5165 91.6192C67.0917 90.4409 67.9155 89.3604 68.5127 88.0791C68.981 87.1486 69.8414 86.3962 69.9184 85.287C69.8997 85.1233 69.7146 84.9828 69.5262 85.1089C67.4125 86.4363 66.2435 88.6293 64.9514 90.6403C64.9955 90.4345 65.0616 90.1258 64.8987 89.8824C64.1892 90.1812 63.9314 90.8827 63.5292 91.5045C61.5143 94.8809 60.1807 98.5954 59.469 102.422C59.6665 94.9737 62.2295 87.5264 67.5545 81.7571C67.9754 81.299 68.3742 80.9438 68.795 80.4857C74.7633 74.7263 82.7503 71.8455 90.6993 73.6634C91.1134 73.7386 91.5056 73.9167 91.9197 73.9918C94.6717 74.7059 96.9591 76.0826 99.0544 77.8534C99.691 78.3965 100.261 79.2484 101.134 79.1937C101.467 79.1472 101.43 78.8197 101.433 78.5531C102.452 80.0743 103.094 81.8485 103.632 83.6032C103.829 86.2051 103.358 88.8997 101.96 91.158C101.683 91.6958 101.407 92.2335 101.049 92.6496C99.9747 93.8977 98.859 95.0855 97.559 96.1323C96.9498 96.7166 96.4034 97.2588 95.9376 97.9232C95.7252 96.6553 96.0526 95.3785 96.4837 94.1191C97.4664 93.5492 98.3276 92.7963 99.0657 91.8613C99.7411 90.9683 100.272 89.9957 100.66 88.943C101.179 87.2734 101.325 85.5881 101.097 83.8898C100.675 81.0866 99.466 78.1946 97.016 76.5733C96.354 76.3997 95.4916 75.6552 94.8196 76.2815C94.6092 76.5105 94.7501 76.8568 94.8503 77.1422C95.6432 78.4621 96.7098 79.5116 97.3551 81.0184C97.8781 82.3427 98.1538 83.5693 98.115 85.0054C98.0489 85.3141 98.0048 85.5199 98.0422 85.8474C98.0389 86.114 97.932 86.3619 97.8251 86.6097C97.9208 83.9005 96.7271 81.4389 94.883 79.4999C93.6946 78.2687 92.314 77.4294 90.8084 76.675C88.8478 75.7846 86.757 75.2447 84.598 75.2803C84.7677 74.9904 84.5419 74.7891 84.2941 74.6907C83.5506 74.3953 82.8666 74.3246 82.0977 74.3988C79.9574 74.5982 77.6874 75.1489 76.2144 76.7522C76.1636 77.4913 75.7615 78.1131 75.4629 78.7538C74.9605 79.0902 74.4989 79.4874 74.2631 80.086C74.2411 80.1889 74.3226 80.3106 74.3633 80.3714C73.537 81.718 72.5468 82.8217 71.7205 84.1683C68.8178 87.1697 66.6745 90.8976 65.6069 94.8735C62.4059 101.777 62.3907 109.634 64.3783 116.677C61.5947 108.579 62.0442 99.1983 66.5197 91.6171L66.5165 91.6192ZM60.8906 121.392C58.4026 116.182 56.9569 110.626 56.9705 104.535C57.0434 103.693 56.9906 102.935 57.0634 102.093C57.2565 99.9366 57.5093 98.0036 58.0538 95.9644C58.6203 93.8224 59.2873 91.9645 60.1644 89.8788C60.463 89.2382 60.7803 88.7613 61.0789 88.1206C62.0563 86.3204 63.1566 84.7022 64.422 83.0605C62.8567 85.3426 61.4998 87.6625 60.3861 90.3473C58.9047 94.2488 58.218 97.7053 58.0827 101.851C58.0947 102.548 58.1287 103.142 58.078 103.881C58.0272 104.62 58.1648 105.233 58.2803 105.949C58.3177 106.277 58.2923 106.646 58.3297 106.974C58.4573 108.387 58.7738 109.674 59.0677 111.064C59.1799 112.046 59.2293 113.071 59.342 114.054C59.4983 114.831 59.551 115.588 59.7079 116.366C60.1019 118.041 60.4338 119.759 60.8906 121.392V121.392ZM47.7045 57.1424C50.2865 54.8845 53.1945 53.1134 55.92 50.9357C56.3596 50.6413 56.6395 49.837 56.2507 49.3922C55.8806 49.1113 55.4037 49.0781 54.9047 49.1479C60.2029 45.5117 66.2338 42.9713 72.3775 41.4141C73.4977 41.4572 74.4924 41.5843 75.5885 41.9971C76.0842 42.194 76.6613 42.5125 76.6546 43.0458C72.4389 43.1357 68.4207 44.0638 64.333 45.5673C62.3524 46.2767 60.4932 47.1692 58.7163 48.1829C58.4023 48.3932 58.0884 48.6034 57.8151 48.8745C58.1665 48.9917 58.4805 48.7815 58.7317 48.6133C64.6149 46.2599 70.1314 45.1227 76.4246 44.8755C76.6945 44.871 76.8388 44.9507 77.1087 44.9462C77.6484 44.9373 78.0439 44.8487 78.5208 44.8819C80.3658 45.0565 82.2155 44.9647 83.9944 45.448C75.8213 44.927 67.7665 46.6182 60.0835 50.0887C53.7566 53.0036 48.4184 56.5784 43.4768 61.5622C41.9402 63.2081 40.4485 64.6477 39.0571 66.3727C36.9707 68.8274 35.4221 71.5402 33.6243 74.1542C34.867 71.1187 36.4377 68.3031 38.0317 65.3848C38.1165 65.2399 38.2421 65.1558 38.327 65.0108C38.4338 64.763 38.5407 64.5151 38.7104 64.2252C39.323 63.3743 39.7285 62.4859 40.2383 61.6157C40.6745 61.5879 41.0853 61.9298 40.9344 62.3834L41.0158 62.5051C40.9718 62.7109 40.8241 62.8979 40.9464 63.0804C43.2959 61.1545 45.2746 58.9481 47.7056 57.1439L47.7045 57.1424ZM126.54 100.965C131.288 94.876 133.559 87.5369 135.128 79.9632C135.216 79.5516 135.305 79.1401 135.6 78.7661C135.884 89.2423 132.285 99.7627 124.585 107.828C124.102 108.328 123.703 108.683 123.219 109.183C120.866 111.376 118.395 113.118 115.657 114.6C110.765 117.347 105.223 118.854 99.6586 118.966C98.7996 117.955 97.9841 116.738 98.23 115.339C98.7069 115.372 99.1618 115.508 99.6608 115.438C100.16 115.369 100.637 115.402 101.177 115.393C104.272 115.259 106.977 114.682 109.897 113.608C110.481 113.393 110.962 113.16 111.545 112.945C116.471 110.792 120.457 107.506 123.788 103.513C123.869 103.635 123.932 103.593 123.995 103.551C125.04 102.939 125.801 101.9 126.54 100.965L126.54 100.965ZM95.12 123.328C94.5989 123.5 94.3952 123.196 94.1287 122.934C94.4801 123.051 94.7686 123.211 95.12 123.328ZM120.489 133.225C129.496 130.103 137.561 124.35 143.797 117.088C141.601 120.057 139.138 122.765 136.491 125.331C129.428 130.678 121.158 134.63 112.403 135.82C115.172 135.2 117.88 134.355 120.49 133.226L120.489 133.225ZM108.782 60.3171C108.045 59.4885 107.433 58.5751 106.571 57.8305C108.462 59.2971 110.121 61.0948 111.551 62.9585C111.344 62.921 111.34 63.1876 111.215 63.2717C110.544 62.1344 109.6 61.2674 108.782 60.3171V60.3171ZM65.0303 52.8562C61.5044 54.2478 58.1382 56.1495 54.8535 58.1729C54.8535 58.1729 54.9383 58.028 54.8568 57.9063C59.4822 54.8969 64.4124 52.4767 69.7244 51.0358C70.6409 50.7746 71.5353 50.6163 72.4526 50.3546L75.1368 49.8791C77.8617 49.4644 80.5015 49.1961 83.1756 49.5205C81.2237 49.5938 79.249 49.7704 77.2338 49.885C72.9524 50.2843 68.9932 51.4362 65.0311 52.8556L65.0303 52.8562ZM106.691 112.759C104.317 113.291 101.907 113.495 99.5 113.431C99.9583 113.3 100.439 113.067 100.978 113.058C102.971 113.046 104.883 112.911 106.839 112.572C106.776 112.614 106.754 112.717 106.691 112.759ZM81.3909 115.597C80.6033 115.507 79.8124 115.684 79.3067 116.287C79.0742 116.619 79.0896 117.05 79.0014 117.461C79.0201 117.625 79.0609 117.686 79.0168 117.892C78.9947 117.994 79.0355 118.055 79.0762 118.116C78.5806 117.919 78.1884 117.741 77.6707 117.647C75.4038 114.669 73.7019 111.313 72.7095 107.658C71.3417 102.492 71.5939 97.298 73.6945 92.0123C75.0661 88.6261 76.9881 85.9277 79.2849 83.2439C80.001 82.4118 80.7578 81.6406 81.434 80.7471C81.8295 80.6585 82.1842 80.5091 82.6204 80.4814C82.9938 80.4958 83.3265 80.4493 83.7219 80.3607C88.0033 79.9614 92.6918 81.9357 94.0722 86.036C94.0334 87.4721 93.3098 88.838 92.1982 89.7587C90.4987 91.1612 88.8407 92.624 88.1706 94.7473C86.0809 97.4687 85.7868 101.104 87.0965 104.282C87.6196 105.606 88.3128 106.642 89.1718 107.653C90.0529 108.561 90.9565 109.367 91.9852 110.088C91.8189 110.112 91.6305 110.238 91.4829 110.425C90.1148 110.283 88.7834 110.47 87.4307 110.759C85.9524 111.132 84.6516 112.179 84.2174 113.704C84.1512 114.013 84.0443 114.26 84.019 114.63C84.0123 115.163 84.0276 115.594 84.0837 116.085C83.1519 115.916 82.3048 115.602 81.3917 115.596L81.3909 115.597ZM94.4903 108.94C92.9879 107.919 91.592 106.649 90.7617 105.002C91.9721 106.13 93.2899 107.011 94.9211 107.682C95.2725 107.799 95.6239 107.916 96.016 108.094C96.1603 108.174 96.3674 108.211 96.5744 108.249C95.8871 108.445 95.1369 108.683 94.4903 108.94ZM105.771 108.261C108.436 107.622 110.86 106.351 113.121 104.837C110.521 106.931 107.472 108.356 104.327 109.228L105.771 108.261V108.261ZM124.052 74.1569C124.214 76.1639 124.169 78.134 123.957 80.1272C123.841 79.4114 123.663 78.7376 123.61 77.9797C123.492 75.767 123.56 73.6934 123.11 71.5271C123.514 72.4022 123.752 73.3006 124.053 74.1577L124.052 74.1569ZM117.237 96.1757C117.3 96.1337 117.466 96.1104 117.529 96.0684C117.168 96.751 116.703 97.4149 116.589 98.1961C116.523 98.5047 116.897 98.5191 117.104 98.5567C116.306 99.2671 115.445 100.02 114.525 100.548C114.861 100.235 115.156 99.8608 115.348 99.468L115.669 98.7244C116.178 97.8548 116.831 97.0647 117.237 96.1757ZM120.613 78.6649C120.707 77.7201 120.802 76.7752 120.523 75.8152C121.246 79.4748 121.406 83.2466 120.797 87.0914C120.775 87.1943 120.546 87.2596 120.358 87.3858C120.871 84.4851 120.908 81.5515 120.612 78.6642L120.613 78.6649ZM118.615 87.2305C118.101 86.8699 117.734 86.3222 117.493 85.6905C118.285 83.7498 118.601 81.7747 118.794 79.6183C118.848 78.6126 118.799 77.5881 118.686 76.6048C119.39 80.1006 119.261 83.7132 118.615 87.2305V87.2305ZM113.806 91.5968C113.974 93.0705 113.785 94.961 115.08 95.9445C114.021 97.623 112.755 99.2645 111.222 100.643C109.948 101.32 108.55 101.816 107.094 102.086C105.264 102.342 103.127 102.275 101.856 100.921C103.019 99.2614 104.1 97.4795 105.181 95.6973C106.25 96.4794 107.666 96.1484 108.793 95.6576C110.9 94.8636 112.558 93.4007 113.806 91.5955L113.806 91.5968ZM64.9753 73.697C65.4997 73.2577 66.0021 72.9213 66.5672 72.5428C65.7289 73.1924 65.0976 73.8795 64.3399 74.6513C64.0039 74.9644 63.6492 75.1139 63.3132 75.427C63.7781 74.7631 64.4281 74.2397 64.9753 73.697ZM54.5226 91.0988C56.7555 85.1957 60.5394 79.8415 65.5511 75.7792C66.3267 75.1717 67.1617 74.7888 68.0195 74.3024C65.7769 75.9805 63.7608 77.8594 61.9477 80.043C61.5048 80.604 61.1247 81.123 60.6411 81.6231C59.3752 83.264 58.1713 84.8635 57.1317 86.7065C55.6666 89.274 54.5762 91.8561 53.6695 94.5785C53.912 93.4466 54.2173 92.2727 54.5229 91.0975L54.5226 91.0988ZM120.308 61.5018C121.061 62.7608 121.562 64.1887 122.126 65.5739C121.537 64.5583 120.906 63.481 120.129 62.5916C116.688 55.5516 110.945 49.9645 103.955 46.1834C103.419 45.9257 102.945 45.6259 102.409 45.3682C101.521 44.9932 100.737 44.637 99.7858 44.3033C99.1239 44.1297 98.5875 43.872 97.9883 43.6563C96.2722 43.131 94.655 42.8908 92.9576 42.5292C91.5622 41.2604 89.7233 40.5517 87.9249 39.9052C92.5107 40.0963 96.9604 41.1707 101.111 42.887C101.008 42.8682 100.841 42.8915 100.738 42.8727C100.675 42.9147 100.756 43.0364 100.797 43.0973C106.285 45.8573 111.163 49.2029 115.133 53.7727C117.199 56.1796 118.974 58.6939 120.308 61.5018V61.5018ZM93.568 43.4425C100.644 45.315 107.22 49.0217 112.219 54.3134C107.163 50.2948 101.302 47.5197 94.8437 46.0265C93.7268 45.7169 92.7575 45.2202 91.6401 44.9098C92.3649 45.0413 93.0964 44.6396 93.5393 44.0787C93.6241 43.9337 93.6902 43.625 93.568 43.4425V43.4425ZM103.336 50.8294C102.556 50.2066 101.712 49.6259 100.805 49.0864C107.475 51.8474 113.483 56.1992 117.791 61.9535C119.315 64.636 120.232 67.6353 120.879 70.6404C120.697 70.2332 120.453 69.8682 120.208 69.5031C118.751 66.5119 117.146 63.7077 114.998 61.1798C114.099 60.1079 113.113 59.18 112.276 58.066C111.847 57.5604 111.355 57.0969 110.822 56.5725C110.226 56.0902 109.733 55.6267 109.2 55.1015C107.475 53.6118 105.684 52.4314 103.788 51.2321C103.603 51.0916 103.459 51.012 103.336 50.8294V50.8294ZM104.057 52.992C101.6 51.9039 99.0991 51.023 96.4473 50.5943C93.8209 49.7961 91.2757 49.1209 88.5209 48.6743C86.6979 48.3968 84.933 48.3436 83.1101 48.0661C71.8643 47.5746 60.4838 51.2297 51.3485 57.9642C48.196 59.3702 45.3254 61.4688 42.7035 63.6653C52.9059 52.9541 66.8603 46.0782 82.3213 46.4791C90.3942 46.7147 97.6966 48.7893 104.058 52.9915L104.057 52.992ZM116.201 72.8926C116.63 75.1626 116.788 77.4362 116.199 79.6817C116.095 79.6629 116.077 79.4991 115.825 79.6673C115.744 79.5456 115.662 79.4239 115.644 79.2602C115.717 78.4182 115.893 77.595 115.966 76.7531L115.91 76.2618C116.052 74.8445 115.673 73.5991 115.523 72.2891C115.623 72.5746 115.912 72.7339 116.2 72.8932L116.201 72.8926ZM108.028 88.9444C108.031 88.6777 108.138 88.4299 108.245 88.182C108.586 89.0992 109.427 89.9474 110.485 90.0324C109.483 90.4386 108.432 89.8202 108.028 88.9444V88.9444ZM99.5428 70.296C98.3103 69.2705 96.889 68.3704 95.4461 67.574C97.2844 68.2818 99.0164 69.2383 100.686 70.2356C100.331 70.385 100.077 70.8198 99.5436 70.2955L99.5428 70.296ZM67.8475 66.5737C67.4079 66.8681 66.8648 67.1436 66.3438 67.3163L69.1041 65.7322L67.8483 66.5732L67.8475 66.5737ZM66.3029 78.8033C65.1065 79.8689 64.0315 81.1175 63.1017 82.4453C63.2713 82.1554 63.441 81.8655 63.6514 81.6365C64.1351 81.1363 64.5559 80.6782 64.936 80.1593C65.3569 79.7012 65.8405 79.2011 66.3021 78.8038L66.3029 78.8033ZM101.369 106.714C99.875 106.657 98.4654 106.455 97.0187 105.924C96.7301 105.765 96.4823 105.667 96.1309 105.549C94.9546 105.015 94.0289 104.312 93.085 103.446C92.4705 102.8 92.0851 102.088 91.6363 101.418C91.1287 100.524 91.0793 99.4999 90.9886 98.4137C90.9732 97.9834 91.1649 97.5906 91.501 97.2774C91.8194 100.062 93.4493 102.496 95.755 104.037C96.0436 104.197 96.2914 104.295 96.5172 104.496C97.3829 104.974 98.2707 105.349 99.2218 105.683C99.5731 105.8 99.8838 105.857 100.235 105.974C101.001 106.166 101.707 106.134 102.432 106.266L101.367 106.714L101.369 106.714ZM82.6056 78.288C82.7125 78.0401 82.5495 77.7968 82.5528 77.5301C84.1754 77.2367 85.726 77.7848 87.2796 78.0675C85.7232 78.0522 84.188 77.9345 82.6056 78.288V78.288ZM79.1649 127.489C81.172 129.672 83.6623 131.353 86.2387 132.89C83.9263 131.881 81.6356 130.771 79.5556 129.431C76.5912 127.449 73.9433 124.991 71.6735 122.28C68.209 117.107 66.252 110.925 66.3733 104.585C66.816 109.049 68.1523 113.355 70.3244 117.278C72.6 121.219 75.5036 124.74 79.1641 127.49L79.1649 127.489ZM98.0614 136.961C99.3667 137.145 100.735 137.286 102.041 137.47C101.668 137.455 101.232 137.483 100.877 137.633C101.41 138.157 102.264 137.938 102.926 138.111C103.403 138.144 103.88 138.178 104.419 138.169C113.346 138.185 121.471 135.918 128.894 131.652C127.846 132.531 126.674 133.227 125.666 134.167C111.526 140.902 93.8214 140.682 81.0825 131.847C86.2153 134.756 92.0897 136.464 98.0622 136.96L98.0614 136.961ZM70.7282 114.891C68.325 109.537 67.3188 103.686 68.3279 97.7213C69.1319 93.2158 70.8869 89.044 73.7958 85.5085C71.6424 90.0363 70.1319 94.5732 69.9832 99.7857C69.8365 106.495 71.8601 112.369 75.616 117.435C74.9914 117.588 74.6113 118.107 74.5419 118.683C74.4657 119.791 74.7222 120.853 75.2083 121.851C73.471 119.664 71.8599 117.394 70.7285 114.89L70.7282 114.891ZM127.688 92.0853C126.463 93.7871 125.652 95.5646 124.571 97.3468C124.084 98.1136 123.66 98.8383 123.131 99.5448L123.154 99.4419C122.802 99.3246 122.632 99.6145 122.381 99.7827C119.105 102.77 116.284 105.893 112.949 108.656C112.199 108.894 111.549 109.418 110.798 109.656C109.59 110.025 108.443 110.352 107.235 110.72C113.728 107.782 119.293 102.645 122.528 96.3352C124.146 94.811 124.816 92.6877 125.567 90.6854C125.834 90.9476 126.007 90.391 126.092 90.2461C127.347 87.9076 127.794 85.3156 127.868 82.7101C128.287 80.755 128.332 78.7843 128.4 76.712C128.366 76.1179 128.332 75.5238 128.361 74.8876C128.389 74.2514 128.252 73.6385 128.114 73.0256C128.077 72.6981 128.08 72.4314 128.043 72.1039C127.715 70.1202 127.364 68.2386 126.704 66.3014C126.462 65.6697 126.284 64.9959 126.043 64.3642C125.761 63.6716 125.457 63.0819 125.175 62.3886C126.354 64.4206 127.074 66.5824 128.19 68.6564C128.271 68.7781 128.331 69.0027 128.497 68.9794C128.726 68.9141 128.397 68.694 128.544 68.507C131.425 77.1563 131.094 86.9865 127.126 95.4616C127.576 94.3673 128.048 93.1701 127.917 92.0226C127.876 91.9618 127.751 92.0459 127.688 92.0879L127.688 92.0853ZM117.205 52.385C116.098 51.2754 114.99 50.1651 113.758 49.1396C115.094 50.1839 116.408 51.3318 117.66 52.521C117.43 52.5863 117.393 52.2589 117.205 52.385ZM51.1173 46.482C54.1035 45.0992 57.1083 43.8802 60.213 42.9479C52.4298 46.133 45.3734 50.9466 39.383 56.8089C42.939 53.0174 46.865 49.507 51.1179 46.4828L51.1173 46.482ZM44.0308 53.6953C48.2267 50.1804 52.7681 47.3155 57.9045 44.9334C61.0162 43.4666 63.9803 42.1867 67.2888 41.5587C61.3902 43.4817 55.891 46.5462 50.7191 50.0977C50.0692 50.6211 49.2155 50.8403 48.4424 51.1817C46.9167 52.0272 45.4122 52.7702 44.0308 53.6953V53.6953ZM59.0634 56.852C57.1601 57.9503 55.2763 59.2118 53.6175 60.6752C53.7244 60.4273 53.872 60.2403 54.0196 60.0533C55.5928 58.7354 57.3077 57.7633 59.0626 56.8525L59.0634 56.852ZM76.1547 51.4008C81.6483 50.367 87.0806 50.8715 92.5221 52.3404C93.1213 52.5561 93.639 52.6501 94.2382 52.8657C96.4279 53.6909 98.4118 54.4786 100.369 55.6357C100.739 55.9167 101.024 56.3426 101.372 56.7265C100.547 56.3095 99.7632 55.9533 98.9377 55.5355C98.2977 55.259 97.6985 55.0433 97.0586 54.7668C95.4274 54.0965 93.8958 53.7109 92.1789 53.1861C89.6345 52.5104 87.1669 52.2227 84.5497 52.389C81.4327 52.6255 78.4194 52.8796 75.4213 53.5653C74.2349 53.831 73.1072 54.3218 71.9208 54.5875C67.4631 55.81 63.1491 57.1113 59.0327 59.251C56.2317 60.7742 53.6571 62.4983 51.1413 64.4475C51.311 64.1576 51.4399 63.8068 51.7131 63.5357C56.7736 59.0012 62.3375 55.6277 68.7393 53.3678C69.4895 53.1298 70.3024 52.8498 71.0534 52.6113C72.7608 52.173 74.469 51.7341 76.1544 51.3987L76.1547 51.4008ZM52.5003 65.3904C54.7871 63.5065 57.3803 61.9462 59.993 60.5491C57.085 62.3202 54.3621 64.2318 51.7181 66.5312C51.3413 66.7835 50.9646 67.0358 50.4876 67.0026C51.1783 66.5401 51.7061 65.8342 52.5011 65.3899L52.5003 65.3904ZM65.9041 59.3239C67.2195 58.7075 68.573 58.418 69.907 57.9654C68.758 58.5585 67.6677 59.3768 66.3965 59.7874C64.2894 60.5815 62.3275 61.4547 60.4242 62.5529C62.1824 61.3755 64.0229 60.3193 65.9034 59.3244L65.9041 59.3239ZM94.8304 55.3798C97.1457 56.1209 99.3961 57.1708 101.498 58.4083C101.143 58.5577 100.707 58.5854 100.271 58.6131C99.8569 58.5379 99.4834 58.5236 99.11 58.5092C97.9711 58.3025 96.9357 58.1145 95.8362 57.9684C95.5663 57.9728 95.3185 57.8744 95.0673 58.0426C92.6734 56.9124 90.1282 56.2373 87.5617 55.6644C90.0126 55.5214 92.4428 55.4816 94.8309 55.3806L94.8304 55.3798ZM109.184 66.219C109.144 66.1581 109.103 66.0973 109.125 65.9944C109.539 66.0696 110.057 66.1636 110.434 65.9113C111.029 66.3936 111.311 67.0862 111.594 67.7795C112.076 69.0429 112.455 70.2884 112.313 71.7057C112.265 72.1781 112.218 72.6505 111.964 73.0854C110.371 70.9782 108.568 69.1009 106.576 67.3489C107.134 67.5037 107.611 67.5369 108.132 67.3642C108.694 67.2524 109.115 66.7943 109.184 66.219ZM109.461 73.968C109.949 76.4625 110.459 78.8534 111.382 81.3207C111.523 81.667 111.79 81.9292 112.078 82.0885C111.62 82.2191 111.143 82.186 110.751 82.0079C108.586 80.8124 107.452 78.5754 105.771 76.8799C106.095 75.8697 105.484 74.957 105.079 74.0811C105.631 74.7692 106.205 75.3544 106.694 76.0854C106.961 76.3476 107.164 76.6518 107.578 76.727L107.767 76.6008C108.091 75.5907 107.624 74.7576 107.282 73.8397C106.678 72.3937 105.696 71.1992 104.504 70.2346C100.251 66.7359 95.2304 64.8089 89.6126 64.1631C89.0728 64.1721 88.5331 64.181 88.0154 64.087C88.348 64.0405 88.7215 64.0548 89.0354 63.8446L89.0575 63.7417C88.5244 63.2173 87.7589 63.0249 87.0341 62.8933C90.9579 62.9108 94.7923 63.3396 98.5738 64.7744C100.412 65.4823 101.811 66.4853 103.314 67.5058C104.302 68.1662 105.143 69.0144 105.984 69.8618C107.379 71.1307 108.505 72.4048 109.461 73.968V73.968ZM49.6737 98.5797L62.0511 126.522C62.9126 129.031 64.8598 130.988 66.6412 132.969C63.8906 130.491 61.5608 127.555 59.5857 124.47C57.7549 121.465 56.0497 118.375 55.1388 114.842C54.4436 112.309 54.1631 109.853 54.0525 107.106C54.0634 104.542 54.1758 102.263 54.5386 99.8167C54.9703 96.7943 55.8362 94.0111 56.9092 91.2655C56.8618 91.7379 56.648 92.2336 56.8077 92.7436C57.2879 92.5101 57.4389 92.0565 57.6935 91.6217C57.8224 91.2709 57.9921 90.981 58.2245 90.6491C58.63 89.7606 59.1391 88.8909 59.5861 88.0627C53.4562 100.102 54.9958 114.762 62.0212 125.66C61.955 125.969 62.118 126.213 62.0519 126.521L49.6737 98.5797ZM74.8659 130.986C69.6446 125.226 66.0184 118.046 65.1618 110.246C65.274 111.228 65.5746 112.085 65.7501 113.026C65.9505 113.597 66.0473 114.149 66.2477 114.72C67.1908 117.35 68.2809 119.793 69.7262 122.087C71.3346 124.625 73.1121 126.872 75.3484 128.989C75.9442 129.471 76.4365 129.934 76.9701 130.46C85.496 137.621 96.626 140.658 107.682 139.777C96.0176 141.241 83.8696 138.18 74.8672 130.986L74.8659 130.986ZM154.338 99.2758C154.146 99.6686 154.099 100.141 153.948 100.595C152.806 103.916 151.668 106.97 149.907 109.912C151.819 106.517 153.13 102.905 154.338 99.275L154.338 99.2758ZM154.303 95.4204C152.839 101.249 150.362 106.787 146.832 111.707C150.112 106.689 152.631 101.212 154.303 95.4204ZM122.954 126.992C130.515 123.339 137.164 117.917 142.169 111.127C142.634 110.463 143.077 109.902 143.543 109.237C146.97 104.032 149.512 98.4524 151.101 92.5395C149.479 101.12 145.888 109.342 140.339 116.407C137.238 120.335 133.604 123.739 129.581 126.697C126.859 128.609 124.139 130.254 121.05 131.617C119.402 132.28 117.857 132.962 116.19 133.461C114.524 133.96 112.756 134.175 111.07 134.51C108.512 134.902 106.06 135.044 103.383 134.986C97.9876 134.808 93.1606 133.985 88.4768 131.745C86.7233 130.892 85.3053 129.725 84.1203 128.227C83.6093 127.6 83.1831 126.828 83.3182 125.943L83.4438 125.859C83.4471 125.592 83.7391 125.485 83.9275 125.359C85.0971 126.426 86.3521 127.35 87.795 128.146L88.3501 128.568C88.7829 128.806 89.1751 128.985 89.6079 129.223C97.2416 133.015 105.829 133.611 114.113 131.855C118.005 131.011 121.676 129.7 125.29 127.896C129.573 125.733 133.467 123.126 136.772 119.502C137.466 118.773 138.304 118.124 138.67 117.174C138.422 117.075 138.315 117.323 138.189 117.407C136.638 118.622 135.293 119.875 133.783 121.151C131.958 122.638 130.011 123.942 128.023 125.185C126.475 126.133 124.971 126.876 123.301 127.642C122.529 127.983 121.716 128.263 120.943 128.604C115.31 130.789 109.631 131.683 103.906 131.285C110.466 131.3 116.983 129.756 122.955 126.992L122.954 126.992ZM92.9332 125.498C94.8189 125.734 96.6466 125.745 98.5985 125.672C98.8056 125.709 98.9719 125.686 99.179 125.724C101.09 125.59 102.836 125.478 104.625 125.162C113.941 125.623 123.121 121.944 130.439 116.163C120.485 125.208 105.71 129.637 92.9329 125.5L92.9332 125.498ZM146.066 85.1572C145.443 90.0698 144.281 94.9914 142.168 99.5793C142.156 98.8823 142.081 98.2273 142.38 97.5866C144.241 93.1662 145.353 88.9845 146.134 84.5824C146.09 84.7882 146.109 84.9519 146.065 85.1577L146.066 85.1572ZM134.889 108.95C134.546 109.796 134.059 110.563 133.716 111.41C128.269 116.997 121.304 121.132 113.645 122.736C115.001 122.18 116.358 121.624 117.632 120.947C119.033 120.185 120.456 119.32 121.856 118.559C122.901 117.947 124.029 117.456 125.115 116.905C128.795 114.793 132.109 112.134 134.889 108.95V108.95ZM137.091 82.3514C137.266 83.2918 137.504 84.1902 137.846 85.1081C137.946 85.3935 138.213 85.6557 138.401 85.5296C139.716 84.9132 139.8 83.2707 140.127 81.9939C140.915 78.8216 140.933 75.7248 140.702 72.5288C141.711 79.8761 141.202 87.2682 138.639 94.7147C135.949 102.246 131.654 108.737 125.714 113.86C124.044 114.626 122.248 115.476 120.362 115.241C119.509 115.46 118.799 115.759 117.923 116.081C115.376 117.17 113.041 118.028 110.413 118.995C109.932 119.229 109.267 119.322 108.95 119.799C110.866 120.895 113.237 120.63 115.399 120.328C114.25 120.921 113.041 121.29 111.873 121.72C111.249 121.874 110.728 122.046 110.144 122.261C108.185 122.868 106.188 123.147 104.192 123.425C102.72 123.265 101.248 123.105 99.8199 122.739C98.2888 122.354 96.8829 121.884 95.4545 121.518C101.186 121.383 106.801 120.531 112.313 118.164C116.341 116.435 119.71 114.267 122.902 111.425C126.366 108.312 129.15 104.861 131.422 100.783C134.863 94.511 136.652 87.6714 136.739 80.7374C136.899 81.2475 136.996 81.7995 137.093 82.3516L137.091 82.3514ZM59.3986 38.4686C61.4274 37.2862 63.4929 36.4319 65.7663 35.6146C70.1866 34.0646 74.4718 33.3994 79.1266 33.0144C82.0773 32.8011 84.7765 32.7573 87.7426 32.9744C91.1641 33.3283 94.3364 33.5835 97.6476 34.4519C100.192 35.1276 102.468 35.808 104.946 36.7924C118.003 41.8893 127.807 51.3673 132.571 63.7801C132.505 64.0887 132.48 64.4583 132.476 64.7249C132.748 69.4793 133.546 73.7938 133.153 78.6411L133.02 79.2585C132.884 81.9069 132.439 84.232 131.806 86.6828C131.501 87.8567 131.218 88.9277 130.808 90.0841C130.381 91.0755 130.079 91.9828 129.61 92.9138C130.793 89.6537 131.354 86.2806 131.627 82.7477C131.829 79.7906 131.656 77.086 131.172 74.3249C130.556 70.4175 129.439 66.846 127.781 63.2839C126.364 60.3536 124.715 57.7552 122.775 55.2649C120.323 52.1466 117.638 49.3603 114.366 47.0558C112.904 46.0956 111.486 44.9288 109.747 44.5069C110.688 45.6398 111.987 46.3573 113.075 47.3032C103.877 40.7681 92.222 38.1711 80.8004 38.5035C75.8665 37.9285 70.9419 38.318 66.0508 39.3008C63.0119 39.9257 60.215 41.1817 57.4387 42.3347C59.0273 41.4472 60.6794 40.5171 62.1457 39.447C62.2933 39.26 62.5445 39.0918 62.6921 38.9048C62.7769 38.7599 62.7582 38.5961 62.614 38.5165C61.0829 38.1317 59.4969 38.7531 58.0186 39.1261C58.4582 38.8317 58.8757 38.6403 59.3967 38.4676L59.3986 38.4686ZM34.256 60.1541C37.0244 56.2731 40.2252 52.6303 43.7745 49.3722C43.5641 49.6012 43.4351 49.952 43.2247 50.181C39.9606 53.8651 36.8447 57.363 33.9507 61.328C33.1685 62.4688 32.511 63.526 31.688 64.606C30.6326 66.0178 29.7426 67.407 28.7499 68.7768C29.0673 68.2999 29.3438 67.7622 29.6204 67.2245C31.0634 64.7598 32.5867 62.4166 34.2555 60.1533L34.256 60.1541ZM25.5877 95.843C25.6806 93.4012 25.6482 91.0422 25.5968 88.5207C25.5407 88.0295 25.4218 87.5803 25.3029 87.1311C25.2842 86.9674 25.0992 86.8269 24.9549 86.7472C24.2301 86.6156 23.7839 87.4433 23.4037 87.9622C23.1492 88.3971 23.1833 88.9912 22.866 89.4681C21.0559 96.41 20.1965 103.685 21.1044 110.747C21.23 110.663 21.252 110.56 21.2333 110.396C21.425 110.003 21.576 109.55 21.9935 109.358C22.1599 109.335 22.3449 109.475 22.4892 109.555C23.0409 110.243 23.3008 111.039 23.6647 111.854L23.8587 116.22C24.2344 120.993 25.0505 125.471 26.3435 129.982C27.5583 134.105 29.3384 137.85 31.3874 141.591L31.2618 141.675C31.6118 143.556 32.6718 145.138 33.5649 146.744C36.1037 151.214 39.4809 155.035 43.1098 158.688C33.0288 149.748 25.7023 137.992 22.0685 124.823C18.5724 112.266 18.4224 99.4075 21.7812 86.4918C22.5207 83.7932 23.0942 81.1166 24.578 78.7128C23.505 81.4584 22.4334 84.2042 21.9816 87.0626C22.17 86.9365 22.2141 86.7307 22.2989 86.5858C24.3401 81.0755 26.2523 75.916 29.3226 71.1277C32.232 67.593 35.3325 63.6648 39.6124 61.7693C36.8794 64.4808 34.5165 67.4733 32.5649 70.8084C31.1847 73.2309 29.7242 75.5321 28.9619 78.3341C28.8737 78.7457 28.7227 79.1993 28.5717 79.6529C28.1308 81.7109 27.7524 83.7281 27.3115 85.786C27.2453 86.0947 27.2199 86.4643 27.1946 86.8338L26.9521 87.9657C26.4824 90.6598 26.4487 93.3275 25.5869 95.8435L25.5877 95.843ZM28.2244 115.675C27.5227 110.415 27.5229 105.39 27.6342 99.8498C27.7137 98.4745 27.7079 97.2435 27.9325 95.9473C28.1971 94.7126 28.6059 93.5574 29.0778 92.359C29.027 93.098 28.7471 93.9024 28.7999 94.6603L28.8814 94.782C29.5955 92.4529 30.0808 90.1879 31.0241 87.7936C31.9902 85.2958 33.2809 83.2846 34.6358 81.2315C34.5289 81.4793 34.422 81.7272 34.4815 81.9518C34.6071 81.8677 34.6919 81.7227 34.7768 81.5778C32.0262 87.3869 30.0412 93.3884 29.0246 99.8871C28.2513 105.253 28.0212 110.344 28.4317 115.711C28.4912 115.935 28.3843 116.183 28.403 116.347C28.4965 117.166 28.6528 117.942 28.6433 118.743C28.4903 117.7 28.3781 116.717 28.2247 115.673L28.2244 115.675ZM30.2219 102.084C29.8561 108.059 30.3814 114.142 31.721 119.945C30.7099 116.126 30.1357 112.279 29.834 108.162C29.5817 105.069 30.1404 101.962 30.5314 98.8792C30.4144 99.9269 30.2975 100.975 30.2219 102.084V102.084ZM130.719 160.051C130.198 160.224 129.636 160.336 129.155 160.569C129.865 160.27 130.615 160.032 131.325 159.733C131.137 159.859 130.908 159.924 130.719 160.051L130.719 160.051ZM78.8099 160.785C92.9205 166.234 109.003 166.747 123.833 162.81C109.885 167.655 94.7583 168.705 80.5986 165.493C63.5186 160.094 48.8515 147.701 41.3315 131.58C41.3723 131.641 41.4758 131.66 41.5166 131.721C41.4792 131.393 41.379 131.108 41.2788 130.822C38.6219 124.138 36.5214 117.876 36.009 110.726C36.053 110.52 36.0971 110.314 36.1005 110.048C36.0507 105.761 36.2227 101.943 37.0645 97.7662L37.5716 95.3996C38.6047 90.8287 40.297 86.6989 42.5284 82.5595C44.4618 79.0614 46.6579 76.0914 49.3535 73.0524C52.7211 69.3871 56.4928 66.5969 60.5531 63.966C59.8403 64.5315 59.1683 65.1578 58.414 65.6629C56.778 67.0229 55.204 68.3413 53.7311 69.9446C52.6162 71.1319 51.5004 72.3197 51.0442 73.9473C49.6078 75.8786 48.2945 77.992 47.1879 80.1443C44.7809 83.3425 43.2215 86.8557 41.6997 90.6951C41.1619 92.2009 40.6454 93.6044 40.4188 95.1675C40.4001 95.0037 40.3814 94.84 40.2999 94.7183L40.0453 95.1531C38.9154 99.1719 38.4731 102.993 38.4193 107.261C38.3541 114.092 39.4018 120.003 41.6058 126.284C44.9752 135.663 50.1924 143.454 57.645 150.099C61.5245 153.583 65.4336 156.431 70.3686 158.504C70.5129 158.583 70.6385 158.499 70.7828 158.579C79.4859 163.153 88.568 165.71 98.7109 166.322C101.906 166.474 104.831 166.631 107.929 166.231C108.824 166.073 109.8 166.036 110.695 165.877C110.861 165.854 110.987 165.77 111.113 165.686C105.547 165.798 100.002 166.075 94.3871 165.162C93.4145 164.932 92.5454 164.721 91.5723 164.49C87.9878 163.893 84.7407 162.983 81.2664 161.871C77.7515 160.698 74.6553 159.335 71.562 157.703C73.8931 158.875 76.3722 159.859 78.8102 160.784L78.8099 160.785ZM46.9994 83.5315C46.6787 84.275 46.5651 85.0561 46.2224 85.9026C45.7321 86.936 45.3046 87.9274 44.8762 88.9193C45.5429 87.0627 46.0843 85.2889 46.9988 83.5307L46.9994 83.5315ZM49.395 82.8967C52.0852 78.6274 55.308 74.8817 58.8232 71.0294C58.9081 70.8845 59.1185 70.6554 59.0998 70.4917C59.0591 70.4308 58.8927 70.4541 58.8299 70.4961C57.6589 71.1922 56.7349 71.9872 55.7269 72.9267C55.2432 73.4268 54.7596 73.9269 54.2352 74.3662C53.962 74.6373 53.7923 74.9272 53.5819 75.1563C55.8072 71.5509 58.5871 68.3662 61.449 65.3039C66.8795 61.0503 73.3092 58.1547 80.0749 56.7098C80.6367 56.598 81.1357 56.5283 81.7162 56.5802C84.4752 56.7597 87.0455 57.0666 89.7342 57.822C92.2158 58.5398 94.4883 59.4868 96.631 60.7851C94.6825 60.5917 92.6037 60.7489 90.6772 60.4526C88.4716 59.1963 85.9197 59.0544 83.3245 59.1177C81.7053 59.1445 80.2295 59.2514 78.8107 59.849C78.2015 60.4333 77.655 60.9755 76.8005 61.1952C72.8825 62.4087 69.2311 63.8845 65.7575 66.0333C62.6391 68.0334 59.85 70.2537 57.2205 72.984C55.7068 74.5265 54.6065 76.1447 53.4848 77.8653C52.7874 78.8611 51.967 79.6749 51.3103 80.7316C50.8861 81.4564 50.484 82.0782 50.0182 82.7426C49.1698 84.1921 48.4649 85.7217 47.7206 87.1908C48.2363 85.7878 48.6714 84.2626 49.3936 82.8965L49.395 82.8967ZM49.6368 123.197C48.12 119.981 47.1463 116.49 46.2774 113.018C46.0999 110.58 45.9458 108.039 46.0382 105.596C46.5227 111.618 47.382 117.655 49.6368 123.197V123.197ZM47.4428 107.829C47.2267 103.566 47.6752 99.2107 48.7462 94.9682L48.7869 95.029C48.9566 94.7391 49.1263 94.4492 49.2332 94.2014C47.6743 100.975 47.9202 107.863 49.3928 114.546C50.3378 118.674 51.8471 122.423 53.6679 126.229C55.4699 129.87 57.6928 133.054 60.2704 136.088C53.1013 128.371 48.4105 118.378 47.4425 107.831L47.4428 107.829ZM77.8003 148.678C78.5031 148.913 79.143 149.189 79.7609 149.569C79.0802 149.231 78.4403 148.955 77.8003 148.678ZM78.0428 147.546C83.5932 150.264 89.6118 152.052 95.744 153.058C84.7187 151.538 74.2895 147.239 65.8297 139.768C65.0709 139.043 64.3528 138.378 63.5934 137.651C60.1281 134.242 57.4536 130.656 55.1592 126.551C53.943 124.191 53.0599 121.786 52.2392 119.338C57.0066 131.484 66.2612 141.771 78.0423 147.546L78.0428 147.546ZM138.84 138.216C137.958 139.071 136.749 139.44 136.011 140.375C136.572 140.264 137.012 139.969 137.451 139.675C125.629 147.152 111.778 150.785 97.6577 149.398C90.3391 148.658 83.6584 146.697 77.2859 143.294C71.2653 140.01 65.8576 135.873 61.9194 130.4C65.2899 134.754 69.7326 138.127 74.4912 141.022C84.6684 147.254 96.6343 149.907 108.939 148.719C109.937 148.58 110.913 148.543 111.912 148.403C121.561 147.054 130.801 143.6 138.841 138.215L138.84 138.216ZM76.7425 140.308L74.5777 139.112C73.9191 138.672 73.2197 138.171 72.4977 137.772C72.6641 137.749 72.8083 137.828 72.9526 137.908C73.0375 137.763 72.956 137.641 72.8745 137.52C75.1361 139.267 77.567 140.724 80.084 142.036C79.5068 141.718 78.9704 141.46 78.3305 141.183C77.7941 140.926 77.2797 140.565 76.7433 140.307L76.7425 140.308ZM142.166 127.967C142.439 127.696 142.609 127.406 142.882 127.135C144.311 125.737 145.718 124.442 147.003 122.965C145.485 124.774 143.887 126.462 142.165 127.967L142.166 127.967ZM163.035 84.5483C161.933 96.2169 157.722 107.588 150.708 117.221C150.815 116.974 150.922 116.726 151.07 116.539C157.854 106.971 161.936 95.9503 163.035 84.5483V84.5483ZM145.457 122.148C138.995 129.208 131.06 134.611 121.8 137.902C117.672 139.345 113.653 140.272 109.413 140.732C115.568 139.872 121.449 137.785 127.006 134.945C126.944 134.987 126.984 135.047 126.921 135.089C127.047 135.005 127.129 135.127 127.191 135.085C129.006 134.399 130.739 133.59 132.35 132.6C136.137 130.24 139.887 127.553 142.692 123.999C147.464 119.306 151.391 114.031 154.518 107.969C155.031 106.833 155.521 105.8 156.075 104.724C156.587 103.587 156.974 102.535 157.384 101.379C154.798 108.929 150.599 115.972 145.457 122.15L145.457 122.148Z" fill="#FF503D"/>
</svg>
